<?xml version="1.0" standalone="no"?><!DOCTYPE svg PUBLIC "-//W3C//DTD SVG 1.1//EN" "http://www.w3.org/Graphics/SVG/1.1/DTD/svg11.dtd" >
<svg xmlns="http://www.w3.org/2000/svg">
<defs>
    <font id="remixicon" horiz-adv-x="1200">
    <font-face font-family="remixicon"
        units-per-em="1200" ascent="1200"
        descent="0" />
    <missing-glyph horiz-adv-x="0" /><glyph glyph-name="twitter-fill"
            unicode="&#xF23A;"
            horiz-adv-x="1200" d="M1108.1 917.2A419.2 419.2 0 0 0 987.9999999999998 884.3A209.8 209.8 0 0 1 1080 1000C1039 975.6 994.05 958.5 947.2000000000002 949.25A209.10000000000005 209.10000000000005 0 0 1 590.9000000000001 758.55A593.7 593.7 0 0 0 159.9000000000001 977.05A208.40000000000003 208.40000000000003 0 0 1 131.6000000000001 871.8999999999999C131.6000000000001 799.4 168.5000000000001 735.3499999999999 224.6000000000001 697.8499999999999A208.40000000000003 208.40000000000003 0 0 0 129.9000000000001 724V721.4A209.24999999999997 209.24999999999997 0 0 1 297.6500000000002 516.3499999999999A210.5 210.5 0 0 0 203.1500000000002 512.75A209.24999999999997 209.24999999999997 0 0 1 398.5 367.5000000000001A419.7 419.7 0 0 0 88.95 280.9000000000001A591.5 591.5 0 0 1 409.45 186.9000000000002C794.1 186.9000000000002 1004.45 505.5500000000002 1004.45 781.9000000000001C1004.45 790.9000000000001 1004.2 800.0000000000002 1003.7999999999998 808.9000000000001A424.8 424.8 0 0 1 1108.1499999999999 917.1500000000002z" /><glyph glyph-name="rss-fill"
            unicode="&#xF09E;"
            horiz-adv-x="1200" d="M150 1050C647.0500000000001 1050 1050 647.0500000000001 1050 150H900C900 564.2 564.1999999999999 900 150 900V1050zM150 700C453.7499999999999 700 700 453.75 700 150H550A400 400 0 0 1 150 550V700zM150 350A200 200 0 0 0 350 150H150V350z" /><glyph glyph-name="mail-open-line"
            unicode="&#xEEFA;"
            horiz-adv-x="1200" d="M112.15 857.3L574.5 1134.5A50 50 0 0 0 625.95 1134.5L1087.85 857.25A25 25 0 0 0 1099.9999999999998 835.8V200A50 50 0 0 0 1049.9999999999998 150H150A50 50 0 0 0 100 200V835.8499999999999A25 25 0 0 0 112.15 857.3zM200 793.35V250H1000V793.4000000000001L600.1999999999999 1033.4L200 793.4000000000001zM603 515.1L867.8000000000001 738.25L932.2 661.7500000000001L603.7 384.9L268.2000000000001 661.4000000000001L331.8000000000001 738.6000000000001L603.0000000000001 515.1000000000001z" /><glyph glyph-name="mail-open-fill"
            unicode="&#xEEF9;"
            horiz-adv-x="1200" d="M112.15 857.3L574.5 1134.5A50 50 0 0 0 625.95 1134.5L1087.85 857.25A25 25 0 0 0 1099.9999999999998 835.8V200A50 50 0 0 0 1049.9999999999998 150H150A50 50 0 0 0 100 200V835.8499999999999A25 25 0 0 0 112.15 857.3zM917.3 787.8L603.05 515.85L282.35 788.1L217.65 711.9L603.65 384.15L982.7 712.1499999999999L917.3 787.8z" /><glyph glyph-name="search-line"
            unicode="&#xF0D1;"
            horiz-adv-x="1200" d="M901.55 369.15L1115.7 155.05L1044.95 84.3L830.85 298.4500000000001A448.00000000000006 448.00000000000006 0 0 0 550 200C301.6 200 100 401.6 100 650S301.6 1100 550 1100S1000 898.4 1000 650A448.00000000000006 448.00000000000006 0 0 0 901.55 369.15zM801.2499999999999 406.25A348.84999999999997 348.84999999999997 0 0 1 900 650C900 843.4000000000001 743.35 1000 550 1000C356.6 1000 200 843.4000000000001 200 650C200 456.65 356.6 300 550 300A348.84999999999997 348.84999999999997 0 0 1 793.75 398.7500000000001L801.2499999999999 406.2500000000001z" /><glyph glyph-name="facebook-circle-fill"
            unicode="&#xECBA;"
            horiz-adv-x="1200" d="M600 1100C323.85 1100 100 876.15 100 600C100 350.4500000000001 282.85 143.5999999999999 521.9 106.0500000000002V455.5H394.9000000000001V600H521.9V710.15C521.9 835.45 596.5 904.65 710.75 904.65C765.4499999999999 904.65 822.65 894.9 822.65 894.9V771.8999999999999H759.65C697.5 771.8999999999999 678.15 733.3499999999999 678.15 693.8V600H816.8L794.65 455.5H678.15V106.05C917.15 143.55 1100 350.5000000000001 1100 600C1100 876.15 876.15 1100 600 1100z" /><glyph glyph-name="fire-fill"
            unicode="&#xED32;"
            horiz-adv-x="1200" d="M600 50A375 375 0 0 0 343.1 698.15C410.2000000000001 761.3000000000001 575 875 550 1125C850 925 1000 725 700 425C750 425 825 425 950 548.5C963.5 509.85 975 468.3 975 425A375 375 0 0 0 600 50z" /></font></defs></svg>